top.vcd
$version Generated by VerilatedVcd $end
$date Thu Nov 24 21:40:40 2022 $end
$timescale 1ps $end

 $scope module TOP $end
  $var wire 32 7 a0 [31:0] $end
  $var wire  1 5 clk $end
  $var wire  1 6 rst $end
  $scope module top $end
   $var wire 32 = ADDRESS_WIDTH [31:0] $end
   $var wire  1 ( ALUctrl $end
   $var wire 32 , ALUop1 [31:0] $end
   $var wire 32 - ALUop2 [31:0] $end
   $var wire 32 . ALUout [31:0] $end
   $var wire  1 ) ALUsrc $end
   $var wire 32 > DATA_WIDTH [31:0] $end
   $var wire  1 / EQ $end
   $var wire 32 0 ImmOp [31:0] $end
   $var wire  1 * ImmSrc $end
   $var wire 32 9 PC [31:0] $end
   $var wire  1 + PCsrc $end
   $var wire  1 ' RegWrite $end
   $var wire 32 7 a0 [31:0] $end
   $var wire  1 5 clk $end
   $var wire 32 # instr [31:0] $end
   $var wire 16 & rd [15:0] $end
   $var wire 32 8 regOp2 [31:0] $end
   $var wire 16 $ rs1 [15:0] $end
   $var wire 16 % rs2 [15:0] $end
   $var wire  1 6 rst $end
   $scope module alu_instance $end
    $var wire  1 ( ALUctrl $end
    $var wire 32 , ALUop1 [31:0] $end
    $var wire 32 - ALUop2 [31:0] $end
    $var wire 32 > DATA_WIDTH [31:0] $end
    $var wire  1 / EQ $end
    $var wire 32 . SUM [31:0] $end
   $upscope $end
   $scope module control_unit_instance $end
    $var wire  2 3 ALUOp [1:0] $end
    $var wire  1 ( ALUctrl $end
    $var wire  1 ) ALUsrc $end
    $var wire  1 4 Branch $end
    $var wire  1 / EQ $end
    $var wire  1 * ImmSrc $end
    $var wire  1 + PCsrc $end
    $var wire  1 ' RegWrite $end
    $var wire  3 2 funct3 [2:0] $end
    $var wire 32 # instr [31:0] $end
    $var wire  7 1 op [6:0] $end
   $upscope $end
   $scope module instr_mem_instance $end
    $var wire 32 9 A [31:0] $end
    $var wire 32 > ADDRESS_WIDTH [31:0] $end
    $var wire 32 ? DATA_WIDTH [31:0] $end
    $var wire 32 > OUT_WIDTH [31:0] $end
    $var wire 32 # RD [31:0] $end
   $upscope $end
   $scope module pc_top_instance $end
    $var wire 32 0 ImmOp [31:0] $end
    $var wire 32 9 PC [31:0] $end
    $var wire  1 + PCsrc $end
    $var wire 32 > WIDTH [31:0] $end
    $var wire 32 ; branch_PC [31:0] $end
    $var wire  1 5 clk $end
    $var wire 32 : inc_PC [31:0] $end
    $var wire 32 < next_PC [31:0] $end
    $var wire  1 6 rst $end
    $scope module ProgramCounter $end
     $var wire 32 9 PC [31:0] $end
     $var wire 32 > WIDTH [31:0] $end
     $var wire  1 5 clk $end
     $var wire 32 < next_PC [31:0] $end
     $var wire  1 6 rst $end
    $upscope $end
   $upscope $end
   $scope module reg_file_instance $end
    $var wire 16 $ AD1 [15:0] $end
    $var wire 16 % AD2 [15:0] $end
    $var wire 16 & AD3 [15:0] $end
    $var wire 32 = ADDRESS_WIDTH [31:0] $end
    $var wire 32 > DATA_WIDTH [31:0] $end
    $var wire 32 , RD1 [31:0] $end
    $var wire 32 8 RD2 [31:0] $end
    $var wire 32 . WD3 [31:0] $end
    $var wire  1 ' WE3 $end
    $var wire 32 7 a0 [31:0] $end
    $var wire  1 5 clk $end
   $upscope $end
   $scope module sign_extend_instance $end
    $var wire 32 0 ImmOp [31:0] $end
    $var wire  1 * ImmSrc $end
    $var wire 32 # instr [31:0] $end
   $upscope $end
  $upscope $end
 $upscope $end
$enddefinitions $end


#0
b00000000000000000000000000000000 #
b0000000000000000 $
b0000000000000000 %
b0000000000000000 &
0'
0(
0)
0*
0+
b00000000000000000000000000000000 ,
b00000000000000000000000000000000 -
b00000000000000000000000000000000 .
0/
b00000000000000000000000000000000 0
b0000000 1
b000 2
b00 3
04
15
06
b00000000000000000000000000000000 7
b00000000000000000000000000000000 8
b00000000000000000000000000000000 9
b00000000000000000000000000000100 :
b00000000000000000000000000000000 ;
b00000000000000000000000000000100 <
b00000000000000000000000000010000 =
b00000000000000000000000000100000 >
b00000000000000000000000000001000 ?
#1
b00001111111100000000001100010011 #
b0000000000011111 %
b0000000000000110 &
1'
1(
1)
1*
b00000000000000000000000011111111 -
b00000000000000000000000011111111 .
b00000000000000000000000011111111 0
b0010011 1
b10 3
05
b00000000000000000000000011111111 ;
#2
b00000000000000000000010100010011 #
b0000000000000000 %
b0000000000001010 &
b00000000000000000000000000000000 -
b00000000000000000000000000000000 .
b00000000000000000000000000000000 0
15
b00000000000000000000000000000100 9
b00000000000000000000000000001000 :
b00000000000000000000000000000100 ;
b00000000000000000000000000001000 <
#3
05
#4
b00000000000000000000010110010011 #
b0000000000001011 &
15
b00000000000000000000000000001000 9
b00000000000000000000000000001100 :
b00000000000000000000000000001000 ;
b00000000000000000000000000001100 <
#5
05
#6
b00000000000001011000010100010011 #
b0000000000001011 $
b0000000000001010 &
15
b00000000000000000000000000001100 9
b00000000000000000000000000010000 :
b00000000000000000000000000001100 ;
b00000000000000000000000000010000 <
#7
05
#8
b00000000000101011000010110010011 #
b0000000000000001 %
b0000000000001011 &
b00000000000000000000000000000001 -
b00000000000000000000000000000001 .
b00000000000000000000000000000001 0
15
b00000000000000000000000000010000 9
b00000000000000000000000000010100 :
b00000000000000000000000000010001 ;
b00000000000000000000000000010100 <
#9
05
#10
b11111110011001011001110011100011 #
b0000000000000110 %
b0000000000011001 &
0'
0(
0)
0*
1+
b00000000000000000000000000000001 ,
b00000000000000000000000011111111 -
b11111111111111111111111111111100 0
b1100011 1
b001 2
b01 3
14
15
b00000000000000000000000011111111 8
b00000000000000000000000000010100 9
b00000000000000000000000000011000 :
b00000000000000000000000000010000 ;
b00000000000000000000000000010000 <
#11
05
#12
b00000000000101011000010110010011 #
b0000000000000001 %
b0000000000001011 &
1'
1(
1)
1*
b00000000000000000000000000000001 -
b00000000000000000000000000000010 .
b00000000000000000000000000000001 0
b0010011 1
b000 2
b10 3
04
15
b00000000000000000000000000000000 8
b00000000000000000000000000010000 9
b00000000000000000000000000010100 :
b00000000000000000000000000010001 ;
b00000000000000000000000000010001 <
#13
05
#14
b11100011000000000001010110000101 #
b0000000000000000 $
b0000000000010000 %
0(
b00000000000000000000000000000000 ,
b11111111111111111111111000110000 -
b11111111111111111111111000110000 0
b0000101 1
b001 2
15
b00000000000000000000000000010001 9
b00000000000000000000000000010101 :
b11111111111111111111111001000001 ;
b11111111111111111111111001000001 <
#15
05
#16
b00000000000000000000000000000000 #
b0000000000000000 %
b0000000000000000 &
1(
b00000000000000000000000000000000 -
b00000000000000000000000000000000 .
b00000000000000000000000000000000 0
b0000000 1
b000 2
15
b11111111111111111111111001000001 9
b11111111111111111111111001000101 :
