top.vcd
$version Generated by VerilatedVcd $end
$date Sun Nov 27 17:55:35 2022 $end
$timescale 1ps $end

 $scope module TOP $end
  $var wire 32 7 a0 [31:0] $end
  $var wire  1 5 clk $end
  $var wire  1 6 rst $end
  $scope module top $end
   $var wire 32 = ADDRESS_WIDTH [31:0] $end
   $var wire  1 ( ALUctrl $end
   $var wire 32 , ALUop1 [31:0] $end
   $var wire 32 - ALUop2 [31:0] $end
   $var wire 32 . ALUout [31:0] $end
   $var wire  1 ) ALUsrc $end
   $var wire 32 > DATA_WIDTH [31:0] $end
   $var wire  1 / EQ $end
   $var wire 32 0 ImmOp [31:0] $end
   $var wire  1 * ImmSrc $end
   $var wire 32 9 PC [31:0] $end
   $var wire  1 + PCsrc $end
   $var wire  1 ' RegWrite $end
   $var wire 32 7 a0 [31:0] $end
   $var wire  1 5 clk $end
   $var wire 32 # instr [31:0] $end
   $var wire 16 & rd [15:0] $end
   $var wire 32 8 regOp2 [31:0] $end
   $var wire 16 $ rs1 [15:0] $end
   $var wire 16 % rs2 [15:0] $end
   $var wire  1 6 rst $end
   $scope module alu_instance $end
    $var wire  1 ( ALUctrl $end
    $var wire 32 , ALUop1 [31:0] $end
    $var wire 32 - ALUop2 [31:0] $end
    $var wire 32 > DATA_WIDTH [31:0] $end
    $var wire  1 / EQ $end
    $var wire 32 . SUM [31:0] $end
   $upscope $end
   $scope module control_unit_instance $end
    $var wire  2 3 ALUOp [1:0] $end
    $var wire  1 ( ALUctrl $end
    $var wire  1 ) ALUsrc $end
    $var wire  1 4 Branch $end
    $var wire  1 / EQ $end
    $var wire  1 * ImmSrc $end
    $var wire  1 + PCsrc $end
    $var wire  1 ' RegWrite $end
    $var wire  3 2 funct3 [2:0] $end
    $var wire 32 # instr [31:0] $end
    $var wire  7 1 op [6:0] $end
   $upscope $end
   $scope module instr_mem_instance $end
    $var wire 32 9 A [31:0] $end
    $var wire 32 > ADDRESS_WIDTH [31:0] $end
    $var wire 32 ? DATA_WIDTH [31:0] $end
    $var wire 32 > OUT_WIDTH [31:0] $end
    $var wire 32 # RD [31:0] $end
   $upscope $end
   $scope module pc_top_instance $end
    $var wire 32 0 ImmOp [31:0] $end
    $var wire 32 9 PC [31:0] $end
    $var wire  1 + PCsrc $end
    $var wire 32 > WIDTH [31:0] $end
    $var wire 32 ; branch_PC [31:0] $end
    $var wire  1 5 clk $end
    $var wire 32 : inc_PC [31:0] $end
    $var wire 32 < next_PC [31:0] $end
    $var wire  1 6 rst $end
    $scope module ProgramCounter $end
     $var wire 32 9 PC [31:0] $end
     $var wire 32 > WIDTH [31:0] $end
     $var wire  1 5 clk $end
     $var wire 32 < next_PC [31:0] $end
     $var wire  1 6 rst $end
    $upscope $end
   $upscope $end
   $scope module reg_file_instance $end
    $var wire 16 $ AD1 [15:0] $end
    $var wire 16 % AD2 [15:0] $end
    $var wire 16 & AD3 [15:0] $end
    $var wire 32 = ADDRESS_WIDTH [31:0] $end
    $var wire 32 > DATA_WIDTH [31:0] $end
    $var wire 32 , RD1 [31:0] $end
    $var wire 32 8 RD2 [31:0] $end
    $var wire 32 . WD3 [31:0] $end
    $var wire  1 ' WE3 $end
    $var wire 32 7 a0 [31:0] $end
    $var wire  1 5 clk $end
   $upscope $end
   $scope module sign_extend_instance $end
    $var wire 32 0 ImmOp [31:0] $end
    $var wire  1 * ImmSrc $end
    $var wire 32 # instr [31:0] $end
   $upscope $end
  $upscope $end
 $upscope $end
$enddefinitions $end


#0
b00000000000000000000000000000000 #
b0000000000000000 $
b0000000000000000 %
b0000000000000000 &
0'
0(
0)
0*
0+
b00000000000000000000000000000000 ,
b00000000000000000000000000000000 -
b00000000000000000000000000000000 .
0/
b00000000000000000000000000000000 0
b0000000 1
b000 2
b00 3
04
15
06
b00000000000000000000000000000000 7
b00000000000000000000000000000000 8
b00000000000000000000000000000000 9
b00000000000000000000000000000100 :
b00000000000000000000000000000000 ;
b00000000000000000000000000000100 <
b00000000000000000000000000010000 =
b00000000000000000000000000100000 >
b00000000000000000000000000001000 ?
#1
b00001111111100000000001100010011 #
b0000000000011111 %
b0000000000000110 &
1'
1(
1)
1*
b00000000000000000000000011111111 -
b00000000000000000000000011111111 .
b00000000000000000000000011111111 0
b0010011 1
b10 3
05
b00000000000000000000000011111111 ;
#2
b00000000000000000000010100010011 #
b0000000000000000 %
b0000000000001010 &
b00000000000000000000000000000000 -
b00000000000000000000000000000000 .
b00000000000000000000000000000000 0
15
b00000000000000000000000000000100 9
b00000000000000000000000000001000 :
b00000000000000000000000000000100 ;
b00000000000000000000000000001000 <
#3
05
#4
b00000000000000000000010110010011 #
b0000000000001011 &
15
b00000000000000000000000000001000 9
b00000000000000000000000000001100 :
b00000000000000000000000000001000 ;
b00000000000000000000000000001100 <
#5
05
#6
b00000000000001011000010100010011 #
b0000000000001011 $
b0000000000001010 &
15
b00000000000000000000000000001100 9
b00000000000000000000000000010000 :
b00000000000000000000000000001100 ;
b00000000000000000000000000010000 <
#7
05
#8
b00000000000101011000010110010011 #
b0000000000000001 %
b0000000000001011 &
b00000000000000000000000000000001 -
b00000000000000000000000000000001 .
b00000000000000000000000000000001 0
15
b00000000000000000000000000010000 9
b00000000000000000000000000010100 :
b00000000000000000000000000010001 ;
b00000000000000000000000000010100 <
#9
05
#10
b11111110011001011001100011100011 #
b0000000000000110 %
b0000000000010001 &
0'
0(
0)
0*
1+
b00000000000000000000000000000001 ,
b00000000000000000000000011111111 -
b11111111111111111111111111111000 0
b1100011 1
b001 2
b01 3
14
15
b00000000000000000000000011111111 8
b00000000000000000000000000010100 9
b00000000000000000000000000011000 :
b00000000000000000000000000001100 ;
b00000000000000000000000000001100 <
#11
05
#12
b00000000000001011000010100010011 #
b0000000000000000 %
b0000000000001010 &
1'
1(
1)
1*
0+
b00000000000000000000000000000000 -
b00000000000000000000000000000000 0
b0010011 1
b000 2
b10 3
04
15
b00000000000000000000000000000000 8
b00000000000000000000000000001100 9
b00000000000000000000000000010000 :
b00000000000000000000000000010000 <
#13
05
#14
b00000000000101011000010110010011 #
b0000000000000001 %
b0000000000001011 &
b00000000000000000000000000000001 -
b00000000000000000000000000000010 .
b00000000000000000000000000000001 0
15
b00000000000000000000000000000001 7
b00000000000000000000000000010000 9
b00000000000000000000000000010100 :
b00000000000000000000000000010001 ;
b00000000000000000000000000010100 <
#15
05
#16
b11111110011001011001100011100011 #
b0000000000000110 %
b0000000000010001 &
0'
0(
0)
0*
1+
b00000000000000000000000000000010 ,
b00000000000000000000000011111111 -
b11111111111111111111111111111000 0
b1100011 1
b001 2
b01 3
14
15
b00000000000000000000000011111111 8
b00000000000000000000000000010100 9
b00000000000000000000000000011000 :
b00000000000000000000000000001100 ;
b00000000000000000000000000001100 <
#17
05
#18
b00000000000001011000010100010011 #
b0000000000000000 %
b0000000000001010 &
1'
1(
1)
1*
0+
b00000000000000000000000000000000 -
b00000000000000000000000000000000 0
b0010011 1
b000 2
b10 3
04
15
b00000000000000000000000000000000 8
b00000000000000000000000000001100 9
b00000000000000000000000000010000 :
b00000000000000000000000000010000 <
#19
05
#20
b00000000000101011000010110010011 #
b0000000000000001 %
b0000000000001011 &
b00000000000000000000000000000001 -
b00000000000000000000000000000011 .
b00000000000000000000000000000001 0
15
b00000000000000000000000000000010 7
b00000000000000000000000000010000 9
b00000000000000000000000000010100 :
b00000000000000000000000000010001 ;
b00000000000000000000000000010100 <
#21
05
#22
b11111110011001011001100011100011 #
b0000000000000110 %
b0000000000010001 &
0'
0(
0)
0*
1+
b00000000000000000000000000000011 ,
b00000000000000000000000011111111 -
b11111111111111111111111111111000 0
b1100011 1
b001 2
b01 3
14
15
b00000000000000000000000011111111 8
b00000000000000000000000000010100 9
b00000000000000000000000000011000 :
b00000000000000000000000000001100 ;
b00000000000000000000000000001100 <
#23
05
#24
b00000000000001011000010100010011 #
b0000000000000000 %
b0000000000001010 &
1'
1(
1)
1*
0+
b00000000000000000000000000000000 -
b00000000000000000000000000000000 0
b0010011 1
b000 2
b10 3
04
15
b00000000000000000000000000000000 8
b00000000000000000000000000001100 9
b00000000000000000000000000010000 :
b00000000000000000000000000010000 <
#25
05
#26
b00000000000101011000010110010011 #
b0000000000000001 %
b0000000000001011 &
b00000000000000000000000000000001 -
b00000000000000000000000000000100 .
b00000000000000000000000000000001 0
15
b00000000000000000000000000000011 7
b00000000000000000000000000010000 9
b00000000000000000000000000010100 :
b00000000000000000000000000010001 ;
b00000000000000000000000000010100 <
#27
05
#28
b11111110011001011001100011100011 #
b0000000000000110 %
b0000000000010001 &
0'
0(
0)
0*
1+
b00000000000000000000000000000100 ,
b00000000000000000000000011111111 -
b11111111111111111111111111111000 0
b1100011 1
b001 2
b01 3
14
15
b00000000000000000000000011111111 8
b00000000000000000000000000010100 9
b00000000000000000000000000011000 :
b00000000000000000000000000001100 ;
b00000000000000000000000000001100 <
#29
05
#30
b00000000000001011000010100010011 #
b0000000000000000 %
b0000000000001010 &
1'
1(
1)
1*
0+
b00000000000000000000000000000000 -
b00000000000000000000000000000000 0
b0010011 1
b000 2
b10 3
04
15
b00000000000000000000000000000000 8
b00000000000000000000000000001100 9
b00000000000000000000000000010000 :
b00000000000000000000000000010000 <
#31
05
#32
b00000000000101011000010110010011 #
b0000000000000001 %
b0000000000001011 &
b00000000000000000000000000000001 -
b00000000000000000000000000000101 .
b00000000000000000000000000000001 0
15
b00000000000000000000000000000100 7
b00000000000000000000000000010000 9
b00000000000000000000000000010100 :
b00000000000000000000000000010001 ;
b00000000000000000000000000010100 <
#33
05
#34
b11111110011001011001100011100011 #
b0000000000000110 %
b0000000000010001 &
0'
0(
0)
0*
1+
b00000000000000000000000000000101 ,
b00000000000000000000000011111111 -
b11111111111111111111111111111000 0
b1100011 1
b001 2
b01 3
14
15
b00000000000000000000000011111111 8
b00000000000000000000000000010100 9
b00000000000000000000000000011000 :
b00000000000000000000000000001100 ;
b00000000000000000000000000001100 <
#35
05
#36
b00000000000001011000010100010011 #
b0000000000000000 %
b0000000000001010 &
1'
1(
1)
1*
0+
b00000000000000000000000000000000 -
b00000000000000000000000000000000 0
b0010011 1
b000 2
b10 3
04
15
b00000000000000000000000000000000 8
b00000000000000000000000000001100 9
b00000000000000000000000000010000 :
b00000000000000000000000000010000 <
#37
05
#38
b00000000000101011000010110010011 #
b0000000000000001 %
b0000000000001011 &
b00000000000000000000000000000001 -
b00000000000000000000000000000110 .
b00000000000000000000000000000001 0
15
b00000000000000000000000000000101 7
b00000000000000000000000000010000 9
b00000000000000000000000000010100 :
b00000000000000000000000000010001 ;
b00000000000000000000000000010100 <
#39
05
#40
b11111110011001011001100011100011 #
b0000000000000110 %
b0000000000010001 &
0'
0(
0)
0*
1+
b00000000000000000000000000000110 ,
b00000000000000000000000011111111 -
b11111111111111111111111111111000 0
b1100011 1
b001 2
b01 3
14
15
b00000000000000000000000011111111 8
b00000000000000000000000000010100 9
b00000000000000000000000000011000 :
b00000000000000000000000000001100 ;
b00000000000000000000000000001100 <
#41
05
#42
b00000000000001011000010100010011 #
b0000000000000000 %
b0000000000001010 &
1'
1(
1)
1*
0+
b00000000000000000000000000000000 -
b00000000000000000000000000000000 0
b0010011 1
b000 2
b10 3
04
15
b00000000000000000000000000000000 8
b00000000000000000000000000001100 9
b00000000000000000000000000010000 :
b00000000000000000000000000010000 <
#43
05
#44
b00000000000101011000010110010011 #
b0000000000000001 %
b0000000000001011 &
b00000000000000000000000000000001 -
b00000000000000000000000000000111 .
b00000000000000000000000000000001 0
15
b00000000000000000000000000000110 7
b00000000000000000000000000010000 9
b00000000000000000000000000010100 :
b00000000000000000000000000010001 ;
b00000000000000000000000000010100 <
#45
05
#46
b11111110011001011001100011100011 #
b0000000000000110 %
b0000000000010001 &
0'
0(
0)
0*
1+
b00000000000000000000000000000111 ,
b00000000000000000000000011111111 -
b11111111111111111111111111111000 0
b1100011 1
b001 2
b01 3
14
15
b00000000000000000000000011111111 8
b00000000000000000000000000010100 9
b00000000000000000000000000011000 :
b00000000000000000000000000001100 ;
b00000000000000000000000000001100 <
#47
05
#48
b00000000000001011000010100010011 #
b0000000000000000 %
b0000000000001010 &
1'
1(
1)
1*
0+
b00000000000000000000000000000000 -
b00000000000000000000000000000000 0
b0010011 1
b000 2
b10 3
04
15
b00000000000000000000000000000000 8
b00000000000000000000000000001100 9
b00000000000000000000000000010000 :
b00000000000000000000000000010000 <
#49
05
#50
b00000000000101011000010110010011 #
b0000000000000001 %
b0000000000001011 &
b00000000000000000000000000000001 -
b00000000000000000000000000001000 .
b00000000000000000000000000000001 0
15
b00000000000000000000000000000111 7
b00000000000000000000000000010000 9
b00000000000000000000000000010100 :
b00000000000000000000000000010001 ;
b00000000000000000000000000010100 <
#51
05
#52
b11111110011001011001100011100011 #
b0000000000000110 %
b0000000000010001 &
0'
0(
0)
0*
1+
b00000000000000000000000000001000 ,
b00000000000000000000000011111111 -
b11111111111111111111111111111000 0
b1100011 1
b001 2
b01 3
14
15
b00000000000000000000000011111111 8
b00000000000000000000000000010100 9
b00000000000000000000000000011000 :
b00000000000000000000000000001100 ;
b00000000000000000000000000001100 <
#53
05
#54
b00000000000001011000010100010011 #
b0000000000000000 %
b0000000000001010 &
1'
1(
1)
1*
0+
b00000000000000000000000000000000 -
b00000000000000000000000000000000 0
b0010011 1
b000 2
b10 3
04
15
b00000000000000000000000000000000 8
b00000000000000000000000000001100 9
b00000000000000000000000000010000 :
b00000000000000000000000000010000 <
#55
05
#56
b00000000000101011000010110010011 #
b0000000000000001 %
b0000000000001011 &
b00000000000000000000000000000001 -
b00000000000000000000000000001001 .
b00000000000000000000000000000001 0
15
b00000000000000000000000000001000 7
b00000000000000000000000000010000 9
b00000000000000000000000000010100 :
b00000000000000000000000000010001 ;
b00000000000000000000000000010100 <
#57
05
#58
b11111110011001011001100011100011 #
b0000000000000110 %
b0000000000010001 &
0'
0(
0)
0*
1+
b00000000000000000000000000001001 ,
b00000000000000000000000011111111 -
b11111111111111111111111111111000 0
b1100011 1
b001 2
b01 3
14
15
b00000000000000000000000011111111 8
b00000000000000000000000000010100 9
b00000000000000000000000000011000 :
b00000000000000000000000000001100 ;
b00000000000000000000000000001100 <
#59
05
#60
b00000000000001011000010100010011 #
b0000000000000000 %
b0000000000001010 &
1'
1(
1)
1*
0+
b00000000000000000000000000000000 -
b00000000000000000000000000000000 0
b0010011 1
b000 2
b10 3
04
15
b00000000000000000000000000000000 8
b00000000000000000000000000001100 9
b00000000000000000000000000010000 :
b00000000000000000000000000010000 <
#61
05
#62
b00000000000101011000010110010011 #
b0000000000000001 %
b0000000000001011 &
b00000000000000000000000000000001 -
b00000000000000000000000000001010 .
b00000000000000000000000000000001 0
15
b00000000000000000000000000001001 7
b00000000000000000000000000010000 9
b00000000000000000000000000010100 :
b00000000000000000000000000010001 ;
b00000000000000000000000000010100 <
#63
05
#64
b11111110011001011001100011100011 #
b0000000000000110 %
b0000000000010001 &
0'
0(
0)
0*
1+
b00000000000000000000000000001010 ,
b00000000000000000000000011111111 -
b11111111111111111111111111111000 0
b1100011 1
b001 2
b01 3
14
15
b00000000000000000000000011111111 8
b00000000000000000000000000010100 9
b00000000000000000000000000011000 :
b00000000000000000000000000001100 ;
b00000000000000000000000000001100 <
#65
05
#66
b00000000000001011000010100010011 #
b0000000000000000 %
b0000000000001010 &
1'
1(
1)
1*
0+
b00000000000000000000000000000000 -
b00000000000000000000000000000000 0
b0010011 1
b000 2
b10 3
04
15
b00000000000000000000000000000000 8
b00000000000000000000000000001100 9
b00000000000000000000000000010000 :
b00000000000000000000000000010000 <
#67
05
#68
b00000000000101011000010110010011 #
b0000000000000001 %
b0000000000001011 &
b00000000000000000000000000000001 -
b00000000000000000000000000001011 .
b00000000000000000000000000000001 0
15
b00000000000000000000000000001010 7
b00000000000000000000000000010000 9
b00000000000000000000000000010100 :
b00000000000000000000000000010001 ;
b00000000000000000000000000010100 <
#69
05
#70
b11111110011001011001100011100011 #
b0000000000000110 %
b0000000000010001 &
0'
0(
0)
0*
1+
b00000000000000000000000000001011 ,
b00000000000000000000000011111111 -
b11111111111111111111111111111000 0
b1100011 1
b001 2
b01 3
14
15
b00000000000000000000000011111111 8
b00000000000000000000000000010100 9
b00000000000000000000000000011000 :
b00000000000000000000000000001100 ;
b00000000000000000000000000001100 <
#71
05
#72
b00000000000001011000010100010011 #
b0000000000000000 %
b0000000000001010 &
1'
1(
1)
1*
0+
b00000000000000000000000000000000 -
b00000000000000000000000000000000 0
b0010011 1
b000 2
b10 3
04
15
b00000000000000000000000000000000 8
b00000000000000000000000000001100 9
b00000000000000000000000000010000 :
b00000000000000000000000000010000 <
#73
05
#74
b00000000000101011000010110010011 #
b0000000000000001 %
b0000000000001011 &
b00000000000000000000000000000001 -
b00000000000000000000000000001100 .
b00000000000000000000000000000001 0
15
b00000000000000000000000000001011 7
b00000000000000000000000000010000 9
b00000000000000000000000000010100 :
b00000000000000000000000000010001 ;
b00000000000000000000000000010100 <
#75
05
#76
b11111110011001011001100011100011 #
b0000000000000110 %
b0000000000010001 &
0'
0(
0)
0*
1+
b00000000000000000000000000001100 ,
b00000000000000000000000011111111 -
b11111111111111111111111111111000 0
b1100011 1
b001 2
b01 3
14
15
b00000000000000000000000011111111 8
b00000000000000000000000000010100 9
b00000000000000000000000000011000 :
b00000000000000000000000000001100 ;
b00000000000000000000000000001100 <
#77
05
#78
b00000000000001011000010100010011 #
b0000000000000000 %
b0000000000001010 &
1'
1(
1)
1*
0+
b00000000000000000000000000000000 -
b00000000000000000000000000000000 0
b0010011 1
b000 2
b10 3
04
15
b00000000000000000000000000000000 8
b00000000000000000000000000001100 9
b00000000000000000000000000010000 :
b00000000000000000000000000010000 <
#79
05
#80
b00000000000101011000010110010011 #
b0000000000000001 %
b0000000000001011 &
b00000000000000000000000000000001 -
b00000000000000000000000000001101 .
b00000000000000000000000000000001 0
15
b00000000000000000000000000001100 7
b00000000000000000000000000010000 9
b00000000000000000000000000010100 :
b00000000000000000000000000010001 ;
b00000000000000000000000000010100 <
#81
05
#82
b11111110011001011001100011100011 #
b0000000000000110 %
b0000000000010001 &
0'
0(
0)
0*
1+
b00000000000000000000000000001101 ,
b00000000000000000000000011111111 -
b11111111111111111111111111111000 0
b1100011 1
b001 2
b01 3
14
15
b00000000000000000000000011111111 8
b00000000000000000000000000010100 9
b00000000000000000000000000011000 :
b00000000000000000000000000001100 ;
b00000000000000000000000000001100 <
#83
05
#84
b00000000000001011000010100010011 #
b0000000000000000 %
b0000000000001010 &
1'
1(
1)
1*
0+
b00000000000000000000000000000000 -
b00000000000000000000000000000000 0
b0010011 1
b000 2
b10 3
04
15
b00000000000000000000000000000000 8
b00000000000000000000000000001100 9
b00000000000000000000000000010000 :
b00000000000000000000000000010000 <
#85
05
#86
b00000000000101011000010110010011 #
b0000000000000001 %
b0000000000001011 &
b00000000000000000000000000000001 -
b00000000000000000000000000001110 .
b00000000000000000000000000000001 0
15
b00000000000000000000000000001101 7
b00000000000000000000000000010000 9
b00000000000000000000000000010100 :
b00000000000000000000000000010001 ;
b00000000000000000000000000010100 <
#87
05
#88
b11111110011001011001100011100011 #
b0000000000000110 %
b0000000000010001 &
0'
0(
0)
0*
1+
b00000000000000000000000000001110 ,
b00000000000000000000000011111111 -
b11111111111111111111111111111000 0
b1100011 1
b001 2
b01 3
14
15
b00000000000000000000000011111111 8
b00000000000000000000000000010100 9
b00000000000000000000000000011000 :
b00000000000000000000000000001100 ;
b00000000000000000000000000001100 <
#89
05
#90
b00000000000001011000010100010011 #
b0000000000000000 %
b0000000000001010 &
1'
1(
1)
1*
0+
b00000000000000000000000000000000 -
b00000000000000000000000000000000 0
b0010011 1
b000 2
b10 3
04
15
b00000000000000000000000000000000 8
b00000000000000000000000000001100 9
b00000000000000000000000000010000 :
b00000000000000000000000000010000 <
#91
05
#92
b00000000000101011000010110010011 #
b0000000000000001 %
b0000000000001011 &
b00000000000000000000000000000001 -
b00000000000000000000000000001111 .
b00000000000000000000000000000001 0
15
b00000000000000000000000000001110 7
b00000000000000000000000000010000 9
b00000000000000000000000000010100 :
b00000000000000000000000000010001 ;
b00000000000000000000000000010100 <
#93
05
#94
b11111110011001011001100011100011 #
b0000000000000110 %
b0000000000010001 &
0'
0(
0)
0*
1+
b00000000000000000000000000001111 ,
b00000000000000000000000011111111 -
b11111111111111111111111111111000 0
b1100011 1
b001 2
b01 3
14
15
b00000000000000000000000011111111 8
b00000000000000000000000000010100 9
b00000000000000000000000000011000 :
b00000000000000000000000000001100 ;
b00000000000000000000000000001100 <
#95
05
#96
b00000000000001011000010100010011 #
b0000000000000000 %
b0000000000001010 &
1'
1(
1)
1*
0+
b00000000000000000000000000000000 -
b00000000000000000000000000000000 0
b0010011 1
b000 2
b10 3
04
15
b00000000000000000000000000000000 8
b00000000000000000000000000001100 9
b00000000000000000000000000010000 :
b00000000000000000000000000010000 <
#97
05
#98
b00000000000101011000010110010011 #
b0000000000000001 %
b0000000000001011 &
b00000000000000000000000000000001 -
b00000000000000000000000000010000 .
b00000000000000000000000000000001 0
15
b00000000000000000000000000001111 7
b00000000000000000000000000010000 9
b00000000000000000000000000010100 :
b00000000000000000000000000010001 ;
b00000000000000000000000000010100 <
#99
05
#100
b11111110011001011001100011100011 #
b0000000000000110 %
b0000000000010001 &
0'
0(
0)
0*
1+
b00000000000000000000000000010000 ,
b00000000000000000000000011111111 -
b11111111111111111111111111111000 0
b1100011 1
b001 2
b01 3
14
15
b00000000000000000000000011111111 8
b00000000000000000000000000010100 9
b00000000000000000000000000011000 :
b00000000000000000000000000001100 ;
b00000000000000000000000000001100 <
#101
05
#102
b00000000000001011000010100010011 #
b0000000000000000 %
b0000000000001010 &
1'
1(
1)
1*
0+
b00000000000000000000000000000000 -
b00000000000000000000000000000000 0
b0010011 1
b000 2
b10 3
04
15
b00000000000000000000000000000000 8
b00000000000000000000000000001100 9
b00000000000000000000000000010000 :
b00000000000000000000000000010000 <
#103
05
#104
b00000000000101011000010110010011 #
b0000000000000001 %
b0000000000001011 &
b00000000000000000000000000000001 -
b00000000000000000000000000010001 .
b00000000000000000000000000000001 0
15
b00000000000000000000000000010000 7
b00000000000000000000000000010000 9
b00000000000000000000000000010100 :
b00000000000000000000000000010001 ;
b00000000000000000000000000010100 <
#105
05
#106
b11111110011001011001100011100011 #
b0000000000000110 %
b0000000000010001 &
0'
0(
0)
0*
1+
b00000000000000000000000000010001 ,
b00000000000000000000000011111111 -
b11111111111111111111111111111000 0
b1100011 1
b001 2
b01 3
14
15
b00000000000000000000000011111111 8
b00000000000000000000000000010100 9
b00000000000000000000000000011000 :
b00000000000000000000000000001100 ;
b00000000000000000000000000001100 <
#107
05
#108
b00000000000001011000010100010011 #
b0000000000000000 %
b0000000000001010 &
1'
1(
1)
1*
0+
b00000000000000000000000000000000 -
b00000000000000000000000000000000 0
b0010011 1
b000 2
b10 3
04
15
b00000000000000000000000000000000 8
b00000000000000000000000000001100 9
b00000000000000000000000000010000 :
b00000000000000000000000000010000 <
#109
05
#110
b00000000000101011000010110010011 #
b0000000000000001 %
b0000000000001011 &
b00000000000000000000000000000001 -
b00000000000000000000000000010010 .
b00000000000000000000000000000001 0
15
b00000000000000000000000000010001 7
b00000000000000000000000000010000 9
b00000000000000000000000000010100 :
b00000000000000000000000000010001 ;
b00000000000000000000000000010100 <
#111
05
#112
b11111110011001011001100011100011 #
b0000000000000110 %
b0000000000010001 &
0'
0(
0)
0*
1+
b00000000000000000000000000010010 ,
b00000000000000000000000011111111 -
b11111111111111111111111111111000 0
b1100011 1
b001 2
b01 3
14
15
b00000000000000000000000011111111 8
b00000000000000000000000000010100 9
b00000000000000000000000000011000 :
b00000000000000000000000000001100 ;
b00000000000000000000000000001100 <
#113
05
#114
b00000000000001011000010100010011 #
b0000000000000000 %
b0000000000001010 &
1'
1(
1)
1*
0+
b00000000000000000000000000000000 -
b00000000000000000000000000000000 0
b0010011 1
b000 2
b10 3
04
15
b00000000000000000000000000000000 8
b00000000000000000000000000001100 9
b00000000000000000000000000010000 :
b00000000000000000000000000010000 <
#115
05
#116
b00000000000101011000010110010011 #
b0000000000000001 %
b0000000000001011 &
b00000000000000000000000000000001 -
b00000000000000000000000000010011 .
b00000000000000000000000000000001 0
15
b00000000000000000000000000010010 7
b00000000000000000000000000010000 9
b00000000000000000000000000010100 :
b00000000000000000000000000010001 ;
b00000000000000000000000000010100 <
#117
05
#118
b11111110011001011001100011100011 #
b0000000000000110 %
b0000000000010001 &
0'
0(
0)
0*
1+
b00000000000000000000000000010011 ,
b00000000000000000000000011111111 -
b11111111111111111111111111111000 0
b1100011 1
b001 2
b01 3
14
15
b00000000000000000000000011111111 8
b00000000000000000000000000010100 9
b00000000000000000000000000011000 :
b00000000000000000000000000001100 ;
b00000000000000000000000000001100 <
#119
05
#120
b00000000000001011000010100010011 #
b0000000000000000 %
b0000000000001010 &
1'
1(
1)
1*
0+
b00000000000000000000000000000000 -
b00000000000000000000000000000000 0
b0010011 1
b000 2
b10 3
04
15
b00000000000000000000000000000000 8
b00000000000000000000000000001100 9
b00000000000000000000000000010000 :
b00000000000000000000000000010000 <
#121
05
#122
b00000000000101011000010110010011 #
b0000000000000001 %
b0000000000001011 &
b00000000000000000000000000000001 -
b00000000000000000000000000010100 .
b00000000000000000000000000000001 0
15
b00000000000000000000000000010011 7
b00000000000000000000000000010000 9
b00000000000000000000000000010100 :
b00000000000000000000000000010001 ;
b00000000000000000000000000010100 <
#123
05
#124
b11111110011001011001100011100011 #
b0000000000000110 %
b0000000000010001 &
0'
0(
0)
0*
1+
b00000000000000000000000000010100 ,
b00000000000000000000000011111111 -
b11111111111111111111111111111000 0
b1100011 1
b001 2
b01 3
14
15
b00000000000000000000000011111111 8
b00000000000000000000000000010100 9
b00000000000000000000000000011000 :
b00000000000000000000000000001100 ;
b00000000000000000000000000001100 <
#125
05
#126
b00000000000001011000010100010011 #
b0000000000000000 %
b0000000000001010 &
1'
1(
1)
1*
0+
b00000000000000000000000000000000 -
b00000000000000000000000000000000 0
b0010011 1
b000 2
b10 3
04
15
b00000000000000000000000000000000 8
b00000000000000000000000000001100 9
b00000000000000000000000000010000 :
b00000000000000000000000000010000 <
#127
05
#128
b00000000000101011000010110010011 #
b0000000000000001 %
b0000000000001011 &
b00000000000000000000000000000001 -
b00000000000000000000000000010101 .
b00000000000000000000000000000001 0
15
b00000000000000000000000000010100 7
b00000000000000000000000000010000 9
b00000000000000000000000000010100 :
b00000000000000000000000000010001 ;
b00000000000000000000000000010100 <
#129
05
#130
b11111110011001011001100011100011 #
b0000000000000110 %
b0000000000010001 &
0'
0(
0)
0*
1+
b00000000000000000000000000010101 ,
b00000000000000000000000011111111 -
b11111111111111111111111111111000 0
b1100011 1
b001 2
b01 3
14
15
b00000000000000000000000011111111 8
b00000000000000000000000000010100 9
b00000000000000000000000000011000 :
b00000000000000000000000000001100 ;
b00000000000000000000000000001100 <
#131
05
#132
b00000000000001011000010100010011 #
b0000000000000000 %
b0000000000001010 &
1'
1(
1)
1*
0+
b00000000000000000000000000000000 -
b00000000000000000000000000000000 0
b0010011 1
b000 2
b10 3
04
15
b00000000000000000000000000000000 8
b00000000000000000000000000001100 9
b00000000000000000000000000010000 :
b00000000000000000000000000010000 <
#133
05
#134
b00000000000101011000010110010011 #
b0000000000000001 %
b0000000000001011 &
b00000000000000000000000000000001 -
b00000000000000000000000000010110 .
b00000000000000000000000000000001 0
15
b00000000000000000000000000010101 7
b00000000000000000000000000010000 9
b00000000000000000000000000010100 :
b00000000000000000000000000010001 ;
b00000000000000000000000000010100 <
#135
05
#136
b11111110011001011001100011100011 #
b0000000000000110 %
b0000000000010001 &
0'
0(
0)
0*
1+
b00000000000000000000000000010110 ,
b00000000000000000000000011111111 -
b11111111111111111111111111111000 0
b1100011 1
b001 2
b01 3
14
15
b00000000000000000000000011111111 8
b00000000000000000000000000010100 9
b00000000000000000000000000011000 :
b00000000000000000000000000001100 ;
b00000000000000000000000000001100 <
#137
05
#138
b00000000000001011000010100010011 #
b0000000000000000 %
b0000000000001010 &
1'
1(
1)
1*
0+
b00000000000000000000000000000000 -
b00000000000000000000000000000000 0
b0010011 1
b000 2
b10 3
04
15
b00000000000000000000000000000000 8
b00000000000000000000000000001100 9
b00000000000000000000000000010000 :
b00000000000000000000000000010000 <
#139
05
#140
b00000000000101011000010110010011 #
b0000000000000001 %
b0000000000001011 &
b00000000000000000000000000000001 -
b00000000000000000000000000010111 .
b00000000000000000000000000000001 0
15
b00000000000000000000000000010110 7
b00000000000000000000000000010000 9
b00000000000000000000000000010100 :
b00000000000000000000000000010001 ;
b00000000000000000000000000010100 <
#141
05
#142
b11111110011001011001100011100011 #
b0000000000000110 %
b0000000000010001 &
0'
0(
0)
0*
1+
b00000000000000000000000000010111 ,
b00000000000000000000000011111111 -
b11111111111111111111111111111000 0
b1100011 1
b001 2
b01 3
14
15
b00000000000000000000000011111111 8
b00000000000000000000000000010100 9
b00000000000000000000000000011000 :
b00000000000000000000000000001100 ;
b00000000000000000000000000001100 <
#143
05
#144
b00000000000001011000010100010011 #
b0000000000000000 %
b0000000000001010 &
1'
1(
1)
1*
0+
b00000000000000000000000000000000 -
b00000000000000000000000000000000 0
b0010011 1
b000 2
b10 3
04
15
b00000000000000000000000000000000 8
b00000000000000000000000000001100 9
b00000000000000000000000000010000 :
b00000000000000000000000000010000 <
#145
05
#146
b00000000000101011000010110010011 #
b0000000000000001 %
b0000000000001011 &
b00000000000000000000000000000001 -
b00000000000000000000000000011000 .
b00000000000000000000000000000001 0
15
b00000000000000000000000000010111 7
b00000000000000000000000000010000 9
b00000000000000000000000000010100 :
b00000000000000000000000000010001 ;
b00000000000000000000000000010100 <
